../msm-google-modules/touch/fts/ftm5.ko
../msm-google-modules/touch/fts/fts.o ../msm-google-modules/touch/fts/fts_proc.o ../msm-google-modules/touch/fts/fts_lib/ftsCompensation.o ../msm-google-modules/touch/fts/fts_lib/ftsCore.o ../msm-google-modules/touch/fts/fts_lib/ftsError.o ../msm-google-modules/touch/fts/fts_lib/ftsFrame.o ../msm-google-modules/touch/fts/fts_lib/ftsIO.o ../msm-google-modules/touch/fts/fts_lib/ftsTest.o ../msm-google-modules/touch/fts/fts_lib/ftsTime.o ../msm-google-modules/touch/fts/fts_lib/ftsTool.o ../msm-google-modules/touch/fts/fts_lib/ftsFlash.o ../msm-google-modules/touch/fts/fts_lib/ftsGesture.o

