drivers/misc/lkdtm.ko
drivers/misc/lkdtm_core.o drivers/misc/lkdtm_bugs.o drivers/misc/lkdtm_heap.o drivers/misc/lkdtm_perms.o drivers/misc/lkdtm_refcount.o drivers/misc/lkdtm_rodata_objcopy.o drivers/misc/lkdtm_usercopy.o

