techpack/audio/dsp/codecs/native_dlkm.ko
techpack/audio/dsp/codecs/q6audio_v2.o techpack/audio/dsp/codecs/q6audio_v2_aio.o techpack/audio/dsp/codecs/audio_utils_aio.o techpack/audio/dsp/codecs/audio_utils.o techpack/audio/dsp/codecs/audio_native.o techpack/audio/dsp/codecs/aac_in.o techpack/audio/dsp/codecs/amrnb_in.o techpack/audio/dsp/codecs/amrwb_in.o techpack/audio/dsp/codecs/audio_aac.o techpack/audio/dsp/codecs/audio_alac.o techpack/audio/dsp/codecs/audio_amrnb.o techpack/audio/dsp/codecs/audio_amrwb.o techpack/audio/dsp/codecs/audio_amrwbplus.o techpack/audio/dsp/codecs/audio_ape.o techpack/audio/dsp/codecs/audio_evrc.o techpack/audio/dsp/codecs/audio_g711alaw.o techpack/audio/dsp/codecs/audio_g711mlaw.o techpack/audio/dsp/codecs/audio_hwacc_effects.o techpack/audio/dsp/codecs/audio_mp3.o techpack/audio/dsp/codecs/audio_multi_aac.o techpack/audio/dsp/codecs/audio_qcelp.o techpack/audio/dsp/codecs/audio_wma.o techpack/audio/dsp/codecs/audio_wmapro.o techpack/audio/dsp/codecs/evrc_in.o techpack/audio/dsp/codecs/g711alaw_in.o techpack/audio/dsp/codecs/g711mlaw_in.o techpack/audio/dsp/codecs/qcelp_in.o

