techpack/audio/dsp/q6_dlkm.ko
techpack/audio/dsp/msm-audio-event-notify.o techpack/audio/dsp/audio_calibration.o techpack/audio/dsp/audio_cal_utils.o techpack/audio/dsp/q6adm.o techpack/audio/dsp/q6afe.o techpack/audio/dsp/q6asm.o techpack/audio/dsp/q6audio-v2.o techpack/audio/dsp/q6voice.o techpack/audio/dsp/q6core.o techpack/audio/dsp/q6common.o techpack/audio/dsp/rtac.o techpack/audio/dsp/q6lsm.o techpack/audio/dsp/audio_slimslave.o techpack/audio/dsp/adsp_err.o techpack/audio/dsp/msm_audio_ion.o techpack/audio/dsp/avtimer.o techpack/audio/dsp/q6_init.o techpack/audio/dsp/msm-dts-srs-tm-config.o techpack/audio/dsp/msm-cirrus-playback.o techpack/audio/dsp/voice_mhi.o

