techpack/audio/asoc/codecs/wcd934x/wcd934x_dlkm.ko
techpack/audio/asoc/codecs/wcd934x/wcd934x.o techpack/audio/asoc/codecs/wcd934x/wcd934x-dsp-cntl.o techpack/audio/asoc/codecs/wcd934x/wcd934x-mbhc.o techpack/audio/asoc/codecs/wcd934x/wcd934x-dsd.o

