techpack/audio/asoc/codecs/wcd_core_dlkm.ko
techpack/audio/asoc/codecs/wcd9xxx-rst.o techpack/audio/asoc/codecs/wcd9xxx-core-init.o techpack/audio/asoc/codecs/wcd9xxx-core.o techpack/audio/asoc/codecs/wcd9xxx-irq.o techpack/audio/asoc/codecs/wcd9xxx-slimslave.o techpack/audio/asoc/codecs/wcd9xxx-utils.o techpack/audio/asoc/codecs/wcd9335-regmap.o techpack/audio/asoc/codecs/wcd9335-tables.o techpack/audio/asoc/codecs/msm-cdc-pinctrl.o techpack/audio/asoc/codecs/msm-cdc-supply.o techpack/audio/asoc/codecs/wcd934x/wcd934x-regmap.o techpack/audio/asoc/codecs/wcd934x/wcd934x-tables.o techpack/audio/asoc/codecs/wcd9360/wcd9360-regmap.o

