techpack/audio/asoc/codecs/wsa881x_dlkm.ko
techpack/audio/asoc/codecs/wsa881x.o techpack/audio/asoc/codecs/wsa881x-tables.o techpack/audio/asoc/codecs/wsa881x-regmap.o techpack/audio/asoc/codecs/wsa881x-temp-sensor.o

